{
    "Version": "2012-10-17",
    "Statement": [
        {
            "Sid": "DenyCloudWatchDeletingLogsDenyDisablingCloudWatch",
            "Effect": "Deny",
            "Action": [
                "cloudwatch:PutMetricAlarm",
                "ec2:DeleteFlowLogs",
                "cloudwatch:PutDashboard",
                "cloudwatch:DeleteDashboards",
                "logs:DeleteLogGroup",
                "cloudwatch:DeleteAlarms",
                "cloudwatch:DisableAlarmActions",
                "cloudwatch:SetAlarmState",
                "logs:DeleteLogStream"
            ],
            "Resource": "*"
        }
    ]
}