{
    "Version": "2012-10-17",
    "Statement": [
        {
            "Action": [
                "ec2:AttachInternetGateway",
                "ec2:CreateInternetGateway",
                "ec2:AttachEgressOnlyInternetGateway",
                "ec2:CreateVpcPeeringConnection",
                "ec2:AcceptVpcPeeringConnection"
            ],
            "Resource": "*",
            "Effect": "Deny"
        },
        {
            "Action": [
                "globalaccelerator:Create*",
                "globalaccelerator:Update*"
            ],
            "Resource": "*",
            "Effect": "Deny"
        }
    ]
}