{
  "Version": "2012-10-17",
  "Statement": [
    {
      "Sid": "LimitRDSInstanceType",
      "Effect": "Deny",
      "Action": [
        "rds:CreateDBInstance",
        "rds:StartDBInstance"
      ],  
      "Resource": "arn:aws:rds:*:*:*",
      "Condition": {
        "ForAnyValue:StringNotLike": {
          "rds:DatabaseClass": [
            "db.*.micro",
            "db.*.small",
            "db.*.medium"
          ]
        }
      }
    },
	{  
	  "Sid": "DenyRDSUnencrypted",
      "Effect": "Deny",
      "Action": [
         "rds:RestoreDBClusterFromS3",
         "rds:CreateDBCluster",
         "rds:RestoreDBInstanceFromS3",
         "rds:CreateDBInstance"
      ],
      "Resource": "*",
      "Condition": {
        "Bool": {
            "rds:StorageEncrypted": "false"
      }
      }
	}  
  ]
}