{
  "Version": "2012-10-17",
  "Statement": [
    {
      "Sid": "DenyS3DeleteBucketsAndObjects",
      "Effect": "Deny",
      "Action": [
          "s3:DeleteBucket",
          "s3:DeleteObject",
          "s3:DeleteObjectVersion"
      ],
      "Resource": "*"
    },
    {
      "Sid": "DenyS3BucketsPublicAccess",
      "Effect": "Deny",
      "Action": [
          "s3:PutBucketPublicAccessBlock",
          "s3:DeletePublicAccessBlock"

      ],
      "Resource": "*"
    },
    {
      "Sid": "DenyS3IncorrectEncryptionHeader",
            "Effect": "Deny",
            "Action": [
                "s3:DeleteObjectVersion",
                "s3:DeleteObject",
                "s3:DeleteBucket"
            ],
            "Resource": "*",
            "Condition": {
                "StringNotEquals": {
                    "s3:x-amz-content-sha256": [
                        "AES256",
                        "aws:kms"
                    ]
                }
            }
    }
    
  ]
}